^C:\USERS\SMSHEN\DESKTOP\NP_PROJECT3\NP_PROJECT3_WINSOCK_TEMPLATE\NP_HW3\DEBUG\NP_HW3.OBJ|C:\USERS\SMSHEN\DESKTOP\NP_PROJECT3\NP_PROJECT3_WINSOCK_TEMPLATE\NP_HW3\DEBUG\NP_HW3.RES|C:\USERS\SMSHEN\DESKTOP\NP_PROJECT3\NP_PROJECT3_WINSOCK_TEMPLATE\NP_HW3\DEBUG\REQUESTEDSERVER.OBJ
/OUT:"DEBUG\NP_HW3.EXE" /INCREMENTAL /NOLOGO WS2_32.LIB KERNEL32.LIB USER32.LIB GDI32.LIB WINSPOOL.LIB COMDLG32.LIB ADVAPI32.LIB SHELL32.LIB OLE32.LIB OLEAUT32.LIB UUID.LIB ODBC32.LIB ODBCCP32.LIB /MANIFEST /MANIFESTUAC:"level='asInvoker' uiAccess='false'" /manifest:embed /Debug /PDB:"DEBUG\NP_HW3.PDB" /SUBSYSTEM:WINDOWS /TLBID:1 /DYNAMICBASE /NXCOMPAT /IMPLIB:"DEBUG\NP_HW3.LIB" /MACHINE:X86 /SAFESEH DEBUG\NP_HW3.RESDEBUG\NP_HW3.OBJDEBUG\REQUESTEDSERVER.OBJ
^C:\USERS\SMSHEN\DESKTOP\NP_PROJECT3_0456120\WINDOWS_SERVER\DEBUG\NP_HW3.OBJ|C:\USERS\SMSHEN\DESKTOP\NP_PROJECT3_0456120\WINDOWS_SERVER\DEBUG\NP_HW3.RES|C:\USERS\SMSHEN\DESKTOP\NP_PROJECT3_0456120\WINDOWS_SERVER\DEBUG\REQUESTEDSERVER.OBJ
/OUT:"DEBUG\NP_HW3.EXE" /INCREMENTAL /NOLOGO WS2_32.LIB KERNEL32.LIB USER32.LIB GDI32.LIB WINSPOOL.LIB COMDLG32.LIB ADVAPI32.LIB SHELL32.LIB OLE32.LIB OLEAUT32.LIB UUID.LIB ODBC32.LIB ODBCCP32.LIB /MANIFEST /MANIFESTUAC:"level='asInvoker' uiAccess='false'" /manifest:embed /Debug /PDB:"DEBUG\NP_HW3.PDB" /SUBSYSTEM:WINDOWS /TLBID:1 /DYNAMICBASE /NXCOMPAT /IMPLIB:"DEBUG\NP_HW3.LIB" /MACHINE:X86 /SAFESEH DEBUG\NP_HW3.RESDEBUG\NP_HW3.OBJDEBUG\REQUESTEDSERVER.OBJ
